Acquire and Analyze - Applied Data Analytics
…
Max. :0.9640
Max. :0.9090
Max. :11.00
Max. : -2.384
Max. :1.00
Max. :0.53000
Max. :0.934000
Max. :1.340e-01
Max. :0.63600
Max. :0.9310
Max. :198.07

Once the 100 artists were plotted, I immediately noticed duplicate names. To get a succinct list without duplicate artists, I used the dplyr library pipe funtion to sort out distinct artist names. This returns 70 unique values.

## # A tibble: 100 x 1
##    `top$artists`
##    <chr>        
##  1 Drake        
##  2 XXXTENTACION 
##  3 Post Malone  
##  4 Post Malone  
##  5 Drake        
##  6 Post Malone  
##  7 Cardi B      
##  8 Calvin Harris
##  9 Dua Lipa     
## 10 Marshmello   
## #  with 90 more rows
…
